﻿Build started 10/15/2014 10:05:13 AM.
     1>Project "C:\Programmering\cppFun\DoubleLinkedList\DoubleLinkedList\DoubleLinkedList.vcxproj" on node 2 (Build target(s)).
     1>ClCompile:
         C:\Program Files (x86)\Microsoft Visual Studio 12.0\VC\bin\CL.exe /c /Zi /nologo /W3 /WX- /sdl /O2 /Oi /Oy- /GL /D _MBCS /Gm- /EHsc /MD /GS /Gy /fp:precise /Zc:wchar_t /Zc:forScope /Fo"Release\\" /Fd"Release\vc120.pdb" /Gd /TP /analyze- /errorReport:prompt Main.cpp
         Main.cpp
       Link:
         C:\Program Files (x86)\Microsoft Visual Studio 12.0\VC\bin\link.exe /ERRORREPORT:PROMPT /OUT:"C:\Programmering\cppFun\DoubleLinkedList\Release\DoubleLinkedList.exe" /NOLOGO kernel32.lib user32.lib gdi32.lib winspool.lib comdlg32.lib advapi32.lib shell32.lib ole32.lib oleaut32.lib uuid.lib odbc32.lib odbccp32.lib /MANIFEST /MANIFESTUAC:"level='asInvoker' uiAccess='false'" /manifest:embed /DEBUG /PDB:"C:\Programmering\cppFun\DoubleLinkedList\Release\DoubleLinkedList.pdb" /OPT:REF /OPT:ICF /LTCG /TLBID:1 /DYNAMICBASE /NXCOMPAT /IMPLIB:"C:\Programmering\cppFun\DoubleLinkedList\Release\DoubleLinkedList.lib" /MACHINE:X86 /SAFESEH Release\Main.obj
         Generating code
         Finished generating code
         DoubleLinkedList.vcxproj -> C:\Programmering\cppFun\DoubleLinkedList\Release\DoubleLinkedList.exe
     1>Done Building Project "C:\Programmering\cppFun\DoubleLinkedList\DoubleLinkedList\DoubleLinkedList.vcxproj" (Build target(s)).

Build succeeded.

Time Elapsed 00:00:01.17
