c:\programmering\cppfun\inlämningar\rational\project1\debug\vc120.pdb
c:\programmering\cppfun\inlämningar\rational\project1\debug\vc120.idb
c:\programmering\cppfun\inlämningar\rational\project1\debug\main.obj
c:\programmering\cppfun\inlämningar\rational\project1\debug\rational.ilk
c:\programmering\cppfun\inlämningar\rational\project1\debug\rational.pdb
c:\programmering\cppfun\inlämningar\rational\project1\debug\rational.exe
c:\programmering\cppfun\inlämningar\rational\project1\debug\rational.tlog\cl.command.1.tlog
c:\programmering\cppfun\inlämningar\rational\project1\debug\rational.tlog\cl.read.1.tlog
c:\programmering\cppfun\inlämningar\rational\project1\debug\rational.tlog\cl.write.1.tlog
c:\programmering\cppfun\inlämningar\rational\project1\debug\rational.tlog\link.command.1.tlog
c:\programmering\cppfun\inlämningar\rational\project1\debug\rational.tlog\link.read.1.tlog
c:\programmering\cppfun\inlämningar\rational\project1\debug\rational.tlog\link.write.1.tlog
